<svg width="109" height="85" viewBox="0 0 109 85" fill="none" xmlns="http://www.w3.org/2000/svg">
<path d="M25.0074 47.4279C24.8883 45.1964 24.747 42.5149 24.7705 40.5208H24.6999C24.1554 42.3969 23.4932 44.3896 22.6883 46.5975L19.8733 54.3587H18.3189L15.7407 46.7406C14.9843 44.4854 14.3457 42.4205 13.8954 40.5208H13.8483C13.8012 42.5149 13.6835 45.1964 13.5408 47.5946L13.1086 54.4517H11.1455L12.2538 38.4531H14.886L17.6054 46.1907C18.2676 48.1611 18.8121 49.9178 19.2138 51.5786H19.2886C19.6918 49.965 20.2584 48.2084 20.9691 46.1907L23.8077 38.4531H26.4399L27.4193 54.4517H25.4092L25.0074 47.4279Z" fill="url(#paint0_linear_11000_22997)"/>
<path d="M33.9498 44.6133H32.419L29.083 54.4574H30.3936L32.6378 47.5142C32.8276 46.9143 32.9883 46.3158 33.1338 45.7311H33.1629C33.3084 46.3019 33.4538 46.8851 33.6727 47.528L35.9461 54.4518H37.2996L33.9498 44.6133Z" fill="url(#paint1_linear_11000_22997)"/>
<path d="M40.0446 44.625V54.4719H38.7715V44.625H40.0446Z" fill="url(#paint2_linear_11000_22997)"/>
<path d="M41.5215 54.441V44.6094H42.9207L46.107 49.5835C46.7705 50.6076 47.3657 51.6745 47.8886 52.7774L47.9177 52.7635C47.7999 51.4498 47.7708 50.2542 47.7708 48.7225V44.6094H48.9775V54.441H47.6822L44.5249 49.4502C43.8413 48.3948 43.2219 47.299 42.6699 46.1688L42.6256 46.1827C42.699 47.4228 42.7295 48.6045 42.7295 50.2376V54.4396L41.5215 54.441Z" fill="url(#paint3_linear_11000_22997)"/>
<path d="M35.6109 41.9848V42.0542L35.6025 42.082L35.4889 42.1487C35.4699 42.1575 35.4533 42.1709 35.4405 42.1875C35.4302 42.2332 35.4242 42.2797 35.4224 42.3264C35.4224 42.4083 35.4128 42.5083 35.4128 42.6264C35.4134 42.7716 35.4217 42.9167 35.4377 43.061L35.4238 43.0846C35.0087 43.2444 34.5677 43.3264 34.123 43.3262C33.8036 43.3313 33.4871 43.2654 33.1962 43.1332C32.9265 43.0098 32.6984 42.8106 32.5395 42.5597C32.3727 42.2894 32.2885 41.9762 32.2971 41.6585C32.2878 41.4193 32.3329 41.1812 32.4289 40.962C32.5249 40.7429 32.6693 40.5485 32.8512 40.3934C33.2537 40.0675 33.7613 39.9006 34.2781 39.9241C34.6764 39.918 35.0717 39.9926 35.4405 40.1435L35.4571 40.1685C35.4115 40.3815 35.3791 40.5971 35.3601 40.8142L35.3407 40.8308H35.234L35.216 40.8128L35.2049 40.5684C35.2038 40.5217 35.1987 40.4753 35.1897 40.4295C35.1774 40.4079 35.1603 40.3894 35.1398 40.3754C35.0725 40.3329 35.001 40.2976 34.9265 40.2698C34.8151 40.2225 34.699 40.1871 34.5802 40.1643C34.4577 40.1414 34.3334 40.1303 34.2089 40.131C33.9486 40.126 33.6911 40.1856 33.4594 40.3045C33.2458 40.4175 33.0739 40.5961 32.969 40.8142C32.8564 41.0459 32.7994 41.3008 32.8027 41.5585C32.8006 41.8317 32.8618 42.1017 32.9814 42.3472C33.0926 42.5827 33.2704 42.7802 33.4926 42.9152C33.7257 43.0556 33.9938 43.1269 34.2657 43.1207C34.3972 43.1204 34.5285 43.1079 34.6577 43.0832C34.7722 43.0636 34.8832 43.0276 34.9874 42.9763C35.0053 42.8783 35.0123 42.7786 35.0082 42.6791V42.4236C35.0139 42.3474 35.0059 42.2707 34.9847 42.1973C34.9717 42.1788 34.9548 42.1635 34.9351 42.1524C34.9154 42.1414 34.8936 42.1349 34.8711 42.1334C34.7402 42.1165 34.6082 42.1091 34.4762 42.1112L34.4555 42.0903V41.989L34.4762 41.9681H34.6148C34.8572 41.9765 35.0539 41.9806 35.2063 41.9806C35.295 41.9806 35.4224 41.9806 35.5928 41.9667L35.6109 41.9848Z" fill="url(#paint4_linear_11000_22997)"/>
<path d="M35.8645 43.2617L35.8438 43.2437V43.1243L35.8645 43.1048C35.9374 43.1071 36.0103 43.1015 36.082 43.0882C36.116 43.0765 36.1461 43.0559 36.1693 43.0285C36.2284 42.9351 36.2798 42.8371 36.3231 42.7354L36.5655 42.2105L37.1945 40.7941L37.5477 39.9609H37.6974L38.6851 42.2703L38.8167 42.5785C38.8541 42.666 38.8985 42.7604 38.9553 42.8632C38.9823 42.9279 39.0172 42.989 39.0592 43.0451C39.0795 43.0642 39.1035 43.0789 39.1298 43.0882C39.1927 43.1014 39.2568 43.107 39.321 43.1048L39.339 43.1243V43.2437L39.321 43.2617C39.1575 43.2479 39.0107 43.2409 38.8791 43.2409C38.6242 43.2492 38.3679 43.2562 38.1116 43.2617L38.0936 43.2437V43.1243L38.1116 43.1048C38.22 43.107 38.3285 43.1001 38.4358 43.084C38.4545 43.0807 38.4713 43.0707 38.4833 43.0559C38.4953 43.0411 38.5015 43.0225 38.5009 43.0035C38.4985 42.9555 38.4873 42.9084 38.4676 42.8646L38.1836 42.1703H36.8454L36.5932 42.7591C36.5577 42.8319 36.5352 42.9104 36.5267 42.991C36.5267 43.0101 36.5327 43.0287 36.5439 43.0442C36.5551 43.0597 36.5709 43.0712 36.5891 43.0771C36.6919 43.1021 36.7979 43.1119 36.9036 43.1062L36.9243 43.1257V43.2451L36.9063 43.2631C36.7068 43.2506 36.5337 43.2451 36.384 43.2451C36.2081 43.2437 36.0377 43.2492 35.8645 43.2617ZM36.9188 41.9717H38.088L37.5076 40.583L36.9188 41.9717Z" fill="url(#paint5_linear_11000_22997)"/>
<path d="M43.7916 40L43.8123 40.018V40.1319L43.793 40.1472C43.6876 40.1469 43.5824 40.1552 43.4785 40.1722C43.4606 40.1761 43.4437 40.1835 43.4287 40.194C43.4138 40.2045 43.401 40.2178 43.3912 40.2333C43.3698 40.2861 43.3599 40.3429 43.3621 40.3999C43.3621 40.4832 43.3621 40.7165 43.3496 41.1026V42.1621C43.3496 42.3163 43.3496 42.4884 43.3566 42.6829C43.3519 42.7957 43.3617 42.9086 43.3857 43.0189C43.4019 43.0516 43.4302 43.0765 43.4646 43.0883C43.5727 43.1096 43.6828 43.1193 43.793 43.1175L43.8123 43.1328V43.2453L43.7916 43.2647C43.5394 43.2508 43.3205 43.2439 43.1349 43.2439C43.0088 43.2439 42.7927 43.2508 42.4893 43.2647L42.4686 43.2453V43.1356L42.4879 43.1175C42.5934 43.1184 42.6986 43.1096 42.8024 43.0911C42.8203 43.0872 42.8372 43.0798 42.8522 43.0693C42.8671 43.0588 42.8799 43.0455 42.8897 43.03C42.9113 42.9767 42.9217 42.9195 42.9202 42.862C42.9202 42.7773 42.9271 42.544 42.9313 42.1677V40.4735L42.1333 42.1399C41.9338 42.5565 41.7592 42.9476 41.6096 43.3133H41.5196C41.4323 43.1161 41.3616 42.9578 41.3062 42.8398L40.1979 40.5555V42.1635C40.1979 42.3135 40.1979 42.4871 40.1979 42.6815C40.1932 42.7957 40.203 42.91 40.227 43.0217C40.2439 43.0541 40.2727 43.0785 40.3074 43.0897C40.4153 43.1125 40.5256 43.1218 40.6357 43.1175L40.6537 43.1369V43.2466L40.633 43.2675L40.4861 43.2605C40.3323 43.2522 40.2021 43.2494 40.0927 43.2494C40.0428 43.2494 39.8585 43.2494 39.5385 43.2675L39.5205 43.2494V43.1383L39.5385 43.1175C39.6438 43.1205 39.7492 43.1131 39.853 43.0953C39.8888 43.086 39.9199 43.0637 39.9403 43.0328C39.9622 42.9811 39.9722 42.9251 39.9694 42.8689C39.9694 42.7898 39.9763 42.5537 39.9804 42.1635V41.1095C39.9804 40.9707 39.9804 40.7999 39.9804 40.5999C39.9844 40.4835 39.9751 40.367 39.9527 40.2527C39.9446 40.2364 39.9332 40.2219 39.9195 40.21C39.9057 40.1981 39.8897 40.189 39.8724 40.1833C39.7645 40.1606 39.6542 40.1512 39.5441 40.1555L39.526 40.1375V40.0264L39.5468 40.0056C39.6535 40.0139 39.7962 40.0167 39.9763 40.0167C40.1564 40.0167 40.2935 40.0167 40.4196 40.0056C40.5498 40.3027 40.6731 40.5721 40.7923 40.8137L41.6678 42.6023L42.4589 40.9623C42.6731 40.5189 42.8172 40.2 42.8911 40.0056C43.0393 40.0139 43.1848 40.0167 43.3275 40.0167C43.4702 40.0167 43.6156 40.0111 43.7916 40Z" fill="url(#paint6_linear_11000_22997)"/>
<path d="M44.085 40.0049L44.103 39.9883C44.6322 39.9985 44.9707 40.0031 45.1184 40.0022C45.6227 40.0022 46.0725 39.9975 46.4678 39.9883L46.4789 40.0049C46.4298 40.2334 46.401 40.4657 46.393 40.6993L46.3791 40.7187H46.2669L46.2461 40.6993C46.2468 40.6872 46.2468 40.6752 46.2461 40.6632C46.2466 40.5385 46.2368 40.4141 46.217 40.291C46.0883 40.2406 45.952 40.2119 45.8139 40.2063C45.6407 40.1938 45.5119 40.1869 45.426 40.1869C45.3041 40.1869 45.1489 40.1952 44.9591 40.2119L44.9494 40.5798V40.9964L44.9425 41.4644C45.1101 41.4727 45.2625 41.4783 45.4024 41.4783C45.5424 41.4783 45.6629 41.4783 45.7585 41.4644C45.8154 41.4625 45.8718 41.4526 45.9261 41.4352C45.9456 41.4214 45.959 41.4005 45.9635 41.3769C45.975 41.3276 45.9824 41.2775 45.9857 41.227L45.994 41.0881L46.0134 41.07H46.1201L46.1381 41.0881C46.1381 41.2561 46.1311 41.4241 46.127 41.5922L46.1381 42.1101L46.1201 42.1282H46.0134L45.994 42.1101L45.9787 41.9713C45.9723 41.9068 45.9621 41.8429 45.9483 41.7796C45.9408 41.757 45.9256 41.7378 45.9053 41.7255C45.851 41.7022 45.7926 41.6899 45.7335 41.6894C45.6407 41.6797 45.5133 41.6755 45.3526 41.6755C45.2625 41.6755 45.1267 41.6755 44.937 41.6866C44.93 41.8157 44.9259 42.0296 44.9259 42.3309C44.9259 42.6323 44.9259 42.8864 44.937 43.0419H45.3623C45.7377 43.0419 45.9718 43.0419 46.066 43.028C46.1579 43.0187 46.2479 42.9962 46.3334 42.9614C46.3473 42.9253 46.3694 42.8433 46.4013 42.7156C46.4331 42.5878 46.4512 42.5073 46.4553 42.4753L46.4789 42.4601H46.5897L46.6091 42.4753C46.5891 42.5898 46.5753 42.7052 46.5675 42.8211C46.5551 42.985 46.5481 43.1252 46.5481 43.2377L46.5329 43.2558C46.2383 43.2456 45.8527 43.241 45.3761 43.2419H44.7485C44.6017 43.2419 44.4493 43.2419 44.29 43.2599L44.272 43.2419V43.1655L44.29 43.1419C44.3443 43.1173 44.3967 43.0886 44.4465 43.0558C44.4719 42.9231 44.4826 42.7881 44.4784 42.6531C44.4867 42.3976 44.4909 42.2004 44.4909 42.0657V40.6993C44.4909 40.5868 44.4909 40.4937 44.4909 40.4215C44.4901 40.3703 44.485 40.3192 44.4756 40.2688C44.4708 40.2456 44.4619 40.2235 44.4493 40.2035C44.4359 40.1894 44.4193 40.1789 44.4008 40.173C44.3633 40.1619 44.3248 40.1545 44.2858 40.1508L44.1099 40.1369L44.0919 40.1216L44.085 40.0049Z" fill="url(#paint7_linear_11000_22997)"/>
<path d="M46.9955 42.4508L47.0135 42.4327H47.1271L47.1451 42.4508C47.1452 42.5714 47.1559 42.6917 47.177 42.8105C47.2018 42.8694 47.2458 42.9183 47.3016 42.9493C47.387 43.0035 47.4806 43.0434 47.5787 43.0673C47.6936 43.0977 47.8118 43.1131 47.9306 43.1132C48.0822 43.1154 48.2325 43.0846 48.3711 43.0229C48.4961 42.9677 48.6018 42.8763 48.6745 42.7605C48.7479 42.6437 48.7859 42.5082 48.784 42.3702C48.7857 42.2791 48.7678 42.1886 48.7313 42.105C48.6992 42.0333 48.6491 41.9711 48.5859 41.9245C48.5212 41.8788 48.449 41.845 48.3725 41.8245C48.2922 41.8023 48.173 41.7773 48.0137 41.7509C47.8544 41.7245 47.7366 41.7051 47.6521 41.6843C47.5621 41.6637 47.4748 41.633 47.3917 41.5926C47.3106 41.5542 47.2373 41.501 47.1756 41.4357C47.1155 41.3666 47.0685 41.2871 47.037 41.201C47.0022 41.1054 46.9849 41.0042 46.9858 40.9025C46.9818 40.77 47.0066 40.6383 47.0585 40.5165C47.1105 40.3947 47.1882 40.2857 47.2864 40.197C47.5099 40.0046 47.7984 39.9052 48.0927 39.9193C48.2399 39.9202 48.3866 39.9365 48.5305 39.9679C48.6793 39.9959 48.8241 40.0426 48.9613 40.1068L48.9779 40.1345C48.937 40.3328 48.9161 40.5347 48.9156 40.7372L48.8948 40.7553H48.7743L48.7563 40.74C48.7563 40.5553 48.748 40.44 48.7424 40.3928C48.7369 40.3456 48.6662 40.2859 48.5318 40.2151C48.3973 40.1444 48.2474 40.1082 48.0955 40.1095C47.9685 40.1089 47.8429 40.1354 47.727 40.1873C47.6154 40.2378 47.5245 40.325 47.4693 40.4345C47.4116 40.5391 47.3811 40.6566 47.3806 40.7761C47.379 40.8594 47.3975 40.9418 47.4346 41.0163C47.4663 41.0825 47.5139 41.1398 47.5732 41.183C47.6326 41.2251 47.6993 41.2557 47.7699 41.2732C47.8447 41.2927 47.9805 41.3177 48.1855 41.3468C48.3886 41.3684 48.5882 41.415 48.7798 41.4857C48.9034 41.54 49.0077 41.6305 49.0791 41.7454C49.1558 41.8745 49.1943 42.0228 49.1899 42.1731C49.1915 42.3311 49.1561 42.4872 49.0865 42.629C49.017 42.7708 48.9153 42.8943 48.7895 42.9896C48.5148 43.2096 48.1713 43.3252 47.8198 43.3159C47.5312 43.3222 47.2448 43.2639 46.9816 43.1451L46.9678 43.116C46.9747 43.0299 46.9858 42.8049 46.9955 42.4508Z" fill="url(#paint8_linear_11000_22997)"/>
<path d="M58.3846 38.035C56.0295 38.1502 55.3756 38.2419 53.5801 38.353C50.7499 38.5266 39.3234 38.5141 39.3234 38.5141C37.9588 38.5141 36.9919 38.5057 36.349 38.5029L31.2094 38.4863C21.2847 38.4599 15.6282 38.4502 7.8536 38.2905C4.15885 38.2155 0 38.1058 0 37.9836C0 37.8614 3.91779 37.7795 7.8536 37.7059C16.6479 37.5364 23.7506 37.4281 31.1498 37.3698C34.8085 37.3379 37.812 37.3184 41.7409 37.3434C45.4065 37.367 44.5213 37.3962 49.0666 37.4323C50.7429 37.4462 54.3088 37.4698 58.7974 37.6489C60.2271 37.7059 61.7247 37.7781 61.7233 37.8503C61.7219 37.9225 60.385 37.9378 58.3846 38.035Z" fill="url(#paint9_linear_11000_22997)"/>
<path d="M67.2703 37.8622C67.1803 37.8803 67.014 37.9164 66.8464 37.9455C65.5996 38.1649 64.3722 38.4093 63.2971 39.1467C62.0268 40.0174 61.4588 41.3366 61.1346 42.8002C61.0113 43.3557 60.9351 43.932 60.8506 44.4999C60.827 44.6582 60.7314 44.5694 60.6691 44.586C60.5306 44.6235 60.5735 44.5096 60.5638 44.4472C60.3338 42.928 60.0928 41.4144 59.148 40.1424C58.3569 39.0787 57.2431 38.569 56.0351 38.2482C55.4394 38.0899 54.8215 38.0122 54.2147 37.8997C54.133 37.8858 54.0762 37.9136 54.0762 37.7608C54.0762 37.6081 54.115 37.622 54.2147 37.6039C55.6873 37.372 57.1531 37.1207 58.3833 36.1458C59.414 35.3293 59.9072 34.1795 60.2189 32.9325C60.3712 32.3173 60.4474 31.6827 60.5555 31.0537C60.5694 30.969 60.543 30.9065 60.694 30.9148C60.845 30.9231 60.8326 30.9565 60.845 31.0634C61.0709 32.5826 61.3133 34.0948 62.2581 35.3682C63.0505 36.4333 64.163 36.9429 65.371 37.2623C65.975 37.422 66.5998 37.5039 67.2163 37.6081C67.3438 37.622 67.3604 37.6664 67.2703 37.8622Z" fill="url(#paint10_linear_11000_22997)"/>
<path d="M55.0129 30.4051V44.6512C55.0129 50.0128 57.386 52.2888 60.6208 52.2888C64.1493 52.2888 66.4518 49.9281 66.4518 44.6512V30.4051H69.5661V44.4304C69.5661 51.8208 65.6871 54.8356 60.4906 54.8356C55.5961 54.8356 51.9014 52.0347 51.9014 44.5665V30.4023L55.0129 30.4051Z" fill="url(#paint11_linear_11000_22997)"/>
<path d="M56.9844 15.3929C55.6759 15.4534 54.3739 15.615 53.0902 15.8762C50.9932 16.297 48.9549 16.9707 47.0195 17.8828C49.7102 16.9784 52.5133 16.4535 55.3483 16.3233C56.8728 16.2266 58.4028 16.2675 59.92 16.4455C63.1479 16.8552 65.4905 17.9439 66.7886 18.5604C69.4306 19.8419 71.8472 21.5453 73.944 23.604C75.3571 25.0107 81.7145 31.7067 81.6452 41.6147C81.6078 46.8791 79.7708 50.8978 79.1141 52.2948C78.0996 54.4782 76.8114 56.523 75.2809 58.3798C73.4588 60.5549 71.29 62.4126 68.8625 63.8775C64.5319 66.4465 60.5711 66.9742 58.8006 67.2102C56.7512 67.4617 54.6835 67.5301 52.6219 67.4143C51.9168 67.3727 51.3238 67.3158 50.8861 67.2672C51.4624 67.4556 52.0477 67.615 52.6399 67.7448C53.9681 68.0255 55.3209 68.1725 56.6783 68.1837C58.879 68.2589 61.0812 68.0823 63.2421 67.6574C65.4994 67.2089 67.6938 66.4866 69.7768 65.5064C69.7768 65.5064 72.621 64.1621 75.026 62.275C76.6967 60.9641 78.5766 59.1353 80.5244 56.2399C80.6464 56.0594 81.3556 55.004 81.9901 53.8015C82.8643 52.1531 85.1321 47.7372 85.0296 41.8202C84.9728 38.5805 84.2261 36.0671 83.8091 34.6965C83.406 33.3721 82.9069 32.0791 82.3157 30.8277C81.336 28.7318 80.0904 26.7715 78.6099 24.9954C78.5295 24.901 78.2164 24.5385 77.8091 24.0942C76.7826 22.9749 73.7542 19.7422 68.8514 17.6425C67.1572 16.9358 65.4002 16.3913 63.6037 16.0164C61.434 15.5189 59.2086 15.3092 56.9844 15.3929Z" fill="url(#paint12_linear_11000_22997)"/>
<path d="M60.9055 0C60.8141 0 60.767 1.99687 60.5426 4.55614C60.3168 7.07376 59.9995 9.13867 59.7529 10.5273L60.7961 13.7448C61.4306 11.635 61.7562 10.5824 61.7728 10.587C61.5622 9.15811 61.2976 7.0682 61.1411 4.51587C60.9845 1.96354 60.997 0.00138865 60.9055 0Z" fill="url(#paint13_radial_11000_22997)"/>
<path d="M86.99 1.24708C86.9179 1.19014 85.0588 3.60778 82.5388 6.59336C80.0562 9.53313 77.9228 11.8549 76.4432 13.4158C75.7404 14.934 75.0389 16.4527 74.3389 17.9719C76.7734 15.776 77.9953 14.6864 78.0045 14.7031V14.7114C79.1391 12.8409 80.8376 10.1289 83.0445 6.91692C85.2513 3.70498 87.062 1.30401 86.99 1.24708Z" fill="url(#paint14_radial_11000_22997)"/>
<path d="M96.7039 21.6783C96.6679 21.5922 94.7492 22.3851 92.2209 23.2377C89.7273 24.0709 87.6492 24.6375 86.214 24.993L83.5693 27.2829C85.8312 26.9894 86.9635 26.8505 86.9662 26.8663C88.2408 26.0789 90.1262 24.968 92.4952 23.764C94.8642 22.5601 96.7386 21.7561 96.7039 21.6783Z" fill="url(#paint15_radial_11000_22997)"/>
<path d="M108.73 41.6125C108.73 41.5208 105.682 41.5736 101.785 41.4653C97.9448 41.3584 94.8028 41.1376 92.6652 40.957L87.7998 42.154C91.0323 42.6901 92.6444 42.9678 92.6361 42.9872H92.6264C94.7931 42.7095 97.9669 42.3443 101.847 42.0652C105.704 41.7861 108.731 41.7041 108.73 41.6125Z" fill="url(#paint16_radial_11000_22997)"/>
<path d="M98.1657 60.7C98.1297 60.7847 96.2109 59.9931 93.6813 59.1405C91.1876 58.3073 89.1096 57.7394 87.6757 57.3853L85.0283 55.0898C87.2911 55.3833 88.4234 55.5222 88.4252 55.5064C89.6997 56.2938 91.5852 57.4047 93.9542 58.6087C96.3232 59.8126 98.2003 60.6167 98.1657 60.7Z" fill="url(#paint17_radial_11000_22997)"/>
<path d="M89.8904 82.3381C89.8183 82.3951 87.9605 79.9774 85.4392 76.9918C82.9566 74.0521 80.8232 71.7303 79.3436 70.1694C78.6426 68.6502 77.9412 67.1315 77.2393 65.6133C79.6729 67.8092 80.8948 68.8988 80.9049 68.8822C80.9049 68.8822 80.9049 68.8822 80.9049 68.8738C82.0409 70.7443 83.7394 73.4564 85.9449 76.6683C88.1503 79.8802 89.9624 82.2812 89.8904 82.3381Z" fill="url(#paint18_radial_11000_22997)"/>
<path d="M62.928 85.0015C62.8366 85.0015 62.7895 83.0046 62.5664 80.4453C62.3406 77.9277 62.022 75.8628 61.7754 74.4742L62.8158 71.2539C63.4503 73.3637 63.7758 74.4163 63.7925 74.4117C63.5819 75.8406 63.3187 77.9305 63.1607 80.4828C63.0028 83.0352 63.0167 85.0015 62.928 85.0015Z" fill="url(#paint19_radial_11000_22997)"/>
<defs>
<linearGradient id="paint0_linear_11000_22997" x1="9.73244" y1="49.1693" x2="27.9862" y2="44.2904" gradientUnits="userSpaceOnUse">
<stop stop-color="#004394"/>
<stop offset="0.01" stop-color="#064A99"/>
<stop offset="0.09" stop-color="#2673B5"/>
<stop offset="0.16" stop-color="#4095CB"/>
<stop offset="0.24" stop-color="#55AFDD"/>
<stop offset="0.32" stop-color="#63C2EA"/>
<stop offset="0.4" stop-color="#6CCDF2"/>
<stop offset="0.49" stop-color="#6FD1F4"/>
<stop offset="0.57" stop-color="#6DCDF1"/>
<stop offset="0.64" stop-color="#69C2E8"/>
<stop offset="0.72" stop-color="#61AEDA"/>
<stop offset="0.79" stop-color="#5593C6"/>
<stop offset="0.86" stop-color="#4770AB"/>
<stop offset="0.93" stop-color="#35458C"/>
<stop offset="1" stop-color="#22186A"/>
</linearGradient>
<linearGradient id="paint1_linear_11000_22997" x1="29.083" y1="49.5346" x2="37.301" y2="49.5346" gradientUnits="userSpaceOnUse">
<stop stop-color="#004394"/>
<stop offset="0.01" stop-color="#064A99"/>
<stop offset="0.09" stop-color="#2673B5"/>
<stop offset="0.16" stop-color="#4095CB"/>
<stop offset="0.24" stop-color="#55AFDD"/>
<stop offset="0.32" stop-color="#63C2EA"/>
<stop offset="0.4" stop-color="#6CCDF2"/>
<stop offset="0.49" stop-color="#6FD1F4"/>
<stop offset="0.57" stop-color="#6DCDF1"/>
<stop offset="0.64" stop-color="#69C2E8"/>
<stop offset="0.72" stop-color="#61AEDA"/>
<stop offset="0.79" stop-color="#5593C6"/>
<stop offset="0.86" stop-color="#4770AB"/>
<stop offset="0.93" stop-color="#35458C"/>
<stop offset="1" stop-color="#22186A"/>
</linearGradient>
<linearGradient id="paint2_linear_11000_22997" x1="36.6339" y1="52.3292" x2="42.1954" y2="46.7809" gradientUnits="userSpaceOnUse">
<stop stop-color="#004394"/>
<stop offset="0.01" stop-color="#064A99"/>
<stop offset="0.09" stop-color="#2673B5"/>
<stop offset="0.16" stop-color="#4095CB"/>
<stop offset="0.24" stop-color="#55AFDD"/>
<stop offset="0.32" stop-color="#63C2EA"/>
<stop offset="0.4" stop-color="#6CCDF2"/>
<stop offset="0.49" stop-color="#6FD1F4"/>
<stop offset="0.57" stop-color="#6DCDF1"/>
<stop offset="0.64" stop-color="#69C2E8"/>
<stop offset="0.72" stop-color="#61AEDA"/>
<stop offset="0.79" stop-color="#5593C6"/>
<stop offset="0.86" stop-color="#4770AB"/>
<stop offset="0.93" stop-color="#35458C"/>
<stop offset="1" stop-color="#22186A"/>
</linearGradient>
<linearGradient id="paint3_linear_11000_22997" x1="40.9313" y1="53.8494" x2="49.5812" y2="45.22" gradientUnits="userSpaceOnUse">
<stop stop-color="#004394"/>
<stop offset="0.01" stop-color="#064A99"/>
<stop offset="0.09" stop-color="#2673B5"/>
<stop offset="0.16" stop-color="#4095CB"/>
<stop offset="0.24" stop-color="#55AFDD"/>
<stop offset="0.32" stop-color="#63C2EA"/>
<stop offset="0.4" stop-color="#6CCDF2"/>
<stop offset="0.49" stop-color="#6FD1F4"/>
<stop offset="0.57" stop-color="#6DCDF1"/>
<stop offset="0.64" stop-color="#69C2E8"/>
<stop offset="0.72" stop-color="#61AEDA"/>
<stop offset="0.79" stop-color="#5593C6"/>
<stop offset="0.86" stop-color="#4770AB"/>
<stop offset="0.93" stop-color="#35458C"/>
<stop offset="1" stop-color="#22186A"/>
</linearGradient>
<linearGradient id="paint4_linear_11000_22997" x1="33.954" y1="43.3235" x2="33.954" y2="39.9213" gradientUnits="userSpaceOnUse">
<stop stop-color="#004394"/>
<stop offset="0.01" stop-color="#064A99"/>
<stop offset="0.09" stop-color="#2673B5"/>
<stop offset="0.16" stop-color="#4095CB"/>
<stop offset="0.24" stop-color="#55AFDD"/>
<stop offset="0.32" stop-color="#63C2EA"/>
<stop offset="0.4" stop-color="#6CCDF2"/>
<stop offset="0.49" stop-color="#6FD1F4"/>
<stop offset="0.57" stop-color="#6DCDF1"/>
<stop offset="0.64" stop-color="#69C2E8"/>
<stop offset="0.72" stop-color="#61AEDA"/>
<stop offset="0.79" stop-color="#5593C6"/>
<stop offset="0.86" stop-color="#4770AB"/>
<stop offset="0.93" stop-color="#35458C"/>
<stop offset="1" stop-color="#22186A"/>
</linearGradient>
<linearGradient id="paint5_linear_11000_22997" x1="37.5893" y1="43.2617" x2="37.5893" y2="39.9609" gradientUnits="userSpaceOnUse">
<stop stop-color="#004394"/>
<stop offset="0.01" stop-color="#064A99"/>
<stop offset="0.09" stop-color="#2673B5"/>
<stop offset="0.16" stop-color="#4095CB"/>
<stop offset="0.24" stop-color="#55AFDD"/>
<stop offset="0.32" stop-color="#63C2EA"/>
<stop offset="0.4" stop-color="#6CCDF2"/>
<stop offset="0.49" stop-color="#6FD1F4"/>
<stop offset="0.57" stop-color="#6DCDF1"/>
<stop offset="0.64" stop-color="#69C2E8"/>
<stop offset="0.72" stop-color="#61AEDA"/>
<stop offset="0.79" stop-color="#5593C6"/>
<stop offset="0.86" stop-color="#4770AB"/>
<stop offset="0.93" stop-color="#35458C"/>
<stop offset="1" stop-color="#22186A"/>
</linearGradient>
<linearGradient id="paint6_linear_11000_22997" x1="41.672" y1="43.3078" x2="41.672" y2="40" gradientUnits="userSpaceOnUse">
<stop stop-color="#004394"/>
<stop offset="0.01" stop-color="#064A99"/>
<stop offset="0.09" stop-color="#2673B5"/>
<stop offset="0.16" stop-color="#4095CB"/>
<stop offset="0.24" stop-color="#55AFDD"/>
<stop offset="0.32" stop-color="#63C2EA"/>
<stop offset="0.4" stop-color="#6CCDF2"/>
<stop offset="0.49" stop-color="#6FD1F4"/>
<stop offset="0.57" stop-color="#6DCDF1"/>
<stop offset="0.64" stop-color="#69C2E8"/>
<stop offset="0.72" stop-color="#61AEDA"/>
<stop offset="0.79" stop-color="#5593C6"/>
<stop offset="0.86" stop-color="#4770AB"/>
<stop offset="0.93" stop-color="#35458C"/>
<stop offset="1" stop-color="#22186A"/>
</linearGradient>
<linearGradient id="paint7_linear_11000_22997" x1="45.3498" y1="43.2558" x2="45.3498" y2="39.9869" gradientUnits="userSpaceOnUse">
<stop stop-color="#004394"/>
<stop offset="0.01" stop-color="#064A99"/>
<stop offset="0.09" stop-color="#2673B5"/>
<stop offset="0.16" stop-color="#4095CB"/>
<stop offset="0.24" stop-color="#55AFDD"/>
<stop offset="0.32" stop-color="#63C2EA"/>
<stop offset="0.4" stop-color="#6CCDF2"/>
<stop offset="0.49" stop-color="#6FD1F4"/>
<stop offset="0.57" stop-color="#6DCDF1"/>
<stop offset="0.64" stop-color="#69C2E8"/>
<stop offset="0.72" stop-color="#61AEDA"/>
<stop offset="0.79" stop-color="#5593C6"/>
<stop offset="0.86" stop-color="#4770AB"/>
<stop offset="0.93" stop-color="#35458C"/>
<stop offset="1" stop-color="#22186A"/>
</linearGradient>
<linearGradient id="paint8_linear_11000_22997" x1="48.0719" y1="43.327" x2="48.0719" y2="39.9235" gradientUnits="userSpaceOnUse">
<stop stop-color="#004394"/>
<stop offset="0.01" stop-color="#064A99"/>
<stop offset="0.09" stop-color="#2673B5"/>
<stop offset="0.16" stop-color="#4095CB"/>
<stop offset="0.24" stop-color="#55AFDD"/>
<stop offset="0.32" stop-color="#63C2EA"/>
<stop offset="0.4" stop-color="#6CCDF2"/>
<stop offset="0.49" stop-color="#6FD1F4"/>
<stop offset="0.57" stop-color="#6DCDF1"/>
<stop offset="0.64" stop-color="#69C2E8"/>
<stop offset="0.72" stop-color="#61AEDA"/>
<stop offset="0.79" stop-color="#5593C6"/>
<stop offset="0.86" stop-color="#4770AB"/>
<stop offset="0.93" stop-color="#35458C"/>
<stop offset="1" stop-color="#22186A"/>
</linearGradient>
<linearGradient id="paint9_linear_11000_22997" x1="0" y1="37.9225" x2="61.7233" y2="37.9225" gradientUnits="userSpaceOnUse">
<stop stop-color="#2D2377"/>
<stop offset="0.49" stop-color="#598EC3"/>
<stop offset="0.65" stop-color="#486AA0"/>
<stop offset="1" stop-color="#1D0E46"/>
</linearGradient>
<linearGradient id="paint10_linear_11000_22997" x1="54.0776" y1="37.7539" x2="67.3271" y2="37.7539" gradientUnits="userSpaceOnUse">
<stop stop-color="#2D2377"/>
<stop offset="0.29" stop-color="#4865A6"/>
<stop offset="0.49" stop-color="#598EC3"/>
<stop offset="1" stop-color="#1D0E46"/>
</linearGradient>
<linearGradient id="paint11_linear_11000_22997" x1="69.5661" y1="42.6196" x2="51.9" y2="42.6196" gradientUnits="userSpaceOnUse">
<stop offset="0.01" stop-color="#EFC981"/>
<stop offset="0.19" stop-color="#E6C081"/>
<stop offset="0.6" stop-color="#C58511"/>
<stop offset="0.81" stop-color="#E5B76D"/>
<stop offset="0.87" stop-color="#EEC687"/>
<stop offset="1" stop-color="#F2E4CE"/>
</linearGradient>
<linearGradient id="paint12_linear_11000_22997" x1="47.0168" y1="41.7841" x2="85.0282" y2="41.7841" gradientUnits="userSpaceOnUse">
<stop offset="0.01" stop-color="#EFC981"/>
<stop offset="0.19" stop-color="#E6C081"/>
<stop offset="0.6" stop-color="#C58511"/>
<stop offset="0.81" stop-color="#E5B76D"/>
<stop offset="0.87" stop-color="#EEC687"/>
<stop offset="1" stop-color="#F2E4CE"/>
</linearGradient>
<radialGradient id="paint13_radial_11000_22997" cx="0" cy="0" r="1" gradientUnits="userSpaceOnUse" gradientTransform="translate(60.7629 6.87379) scale(4.90141 4.91303)">
<stop offset="0.18" stop-color="#F8F0E4"/>
<stop offset="0.59" stop-color="#F2D78F"/>
<stop offset="1" stop-color="#C58511"/>
</radialGradient>
<radialGradient id="paint14_radial_11000_22997" cx="0" cy="0" r="1" gradientUnits="userSpaceOnUse" gradientTransform="translate(80.6672 9.6095) scale(7.40336 7.42092)">
<stop offset="0.18" stop-color="#F8F0E4"/>
<stop offset="0.59" stop-color="#F2D78F"/>
<stop offset="1" stop-color="#C58511"/>
</radialGradient>
<radialGradient id="paint15_radial_11000_22997" cx="0" cy="0" r="1" gradientUnits="userSpaceOnUse" gradientTransform="translate(90.1359 24.475) scale(5.04963 5.06161)">
<stop offset="0.18" stop-color="#F8F0E4"/>
<stop offset="0.59" stop-color="#F2D78F"/>
<stop offset="1" stop-color="#C58511"/>
</radialGradient>
<radialGradient id="paint16_radial_11000_22997" cx="0" cy="0" r="1" gradientUnits="userSpaceOnUse" gradientTransform="translate(98.2648 41.9707) scale(7.43383 7.45148)">
<stop offset="0.18" stop-color="#F8F0E4"/>
<stop offset="0.59" stop-color="#F2D78F"/>
<stop offset="1" stop-color="#C58511"/>
</radialGradient>
<radialGradient id="paint17_radial_11000_22997" cx="0" cy="0" r="1" gradientUnits="userSpaceOnUse" gradientTransform="translate(91.5977 57.8991) scale(5.04963 5.06161)">
<stop offset="0.18" stop-color="#F8F0E4"/>
<stop offset="0.59" stop-color="#F2D78F"/>
<stop offset="1" stop-color="#C58511"/>
</radialGradient>
<radialGradient id="paint18_radial_11000_22997" cx="0" cy="0" r="1" gradientUnits="userSpaceOnUse" gradientTransform="translate(83.5676 73.9757) scale(7.40336 7.42092)">
<stop offset="0.18" stop-color="#F8F0E4"/>
<stop offset="0.59" stop-color="#F2D78F"/>
<stop offset="1" stop-color="#C58511"/>
</radialGradient>
<radialGradient id="paint19_radial_11000_22997" cx="0" cy="0" r="1" gradientUnits="userSpaceOnUse" gradientTransform="translate(62.7825 78.1319) scale(4.9014 4.91303)">
<stop offset="0.18" stop-color="#F8F0E4"/>
<stop offset="0.59" stop-color="#F2D78F"/>
<stop offset="1" stop-color="#C58511"/>
</radialGradient>
</defs>
</svg>
